# Blender MTL File: 'bender1.blend'
# Material Count: 11

newmtl Mat_Gelb
Ns 96.078431
Ka 1.000000 1.000000 1.000000
Kd 0.800000 0.800000 0.000000
Ks 0.500000 0.500000 0.500000
Ke 0.000000 0.000000 0.000000
Ni 1.000000
d 1.000000
illum 2

newmtl Mat_Grau
Ns 96.078431
Ka 1.000000 1.000000 1.000000
Kd 0.640000 0.640000 0.640000
Ks 0.500000 0.500000 0.500000
Ke 0.000000 0.000000 0.000000
Ni 1.000000
d 1.000000
illum 2

newmtl Mat_Grau.001
Ns 96.078431
Ka 1.000000 1.000000 1.000000
Kd 0.640000 0.640000 0.640000
Ks 0.500000 0.500000 0.500000
Ke 0.000000 0.000000 0.000000
Ni 1.000000
d 1.000000
illum 2

newmtl Mat_Schwarz
Ns 96.078431
Ka 1.000000 1.000000 1.000000
Kd 0.000000 0.000000 0.000000
Ks 0.500000 0.500000 0.500000
Ke 0.000000 0.000000 0.000000
Ni 1.000000
d 1.000000
illum 2

newmtl Mat_Zaehne
Ns 96.078431
Ka 1.000000 1.000000 1.000000
Kd 0.800000 0.800000 0.000000
Ks 0.500000 0.500000 0.500000
Ke 0.000000 0.000000 0.000000
Ni 1.000000
d 1.000000
illum 2
map_Kd F:\\Cloud\\OneDrive - Hochschule Kaiserslautern\\FH - Bachelor\\4.Semester\\3DAN\\Aufgaben\\Modelierung\\Tex_Zaehne.jpg

newmtl Material
Ns 96.078431
Ka 1.000000 1.000000 1.000000
Kd 0.640000 0.006655 0.044978
Ks 0.500000 0.500000 0.500000
Ke 0.000000 0.000000 0.000000
Ni 1.000000
d 1.000000
illum 2

newmtl Material.001
Ns 96.078431
Ka 1.000000 1.000000 1.000000
Kd 0.020026 0.640000 0.000000
Ks 0.500000 0.500000 0.500000
Ke 0.000000 0.000000 0.000000
Ni 1.000000
d 1.000000
illum 2

newmtl Material.002
Ns 96.078431
Ka 1.000000 1.000000 1.000000
Kd 0.000000 0.001999 0.640000
Ks 0.500000 0.500000 0.500000
Ke 0.000000 0.000000 0.000000
Ni 1.000000
d 1.000000
illum 2

newmtl Material.004
Ns 96.078431
Ka 1.000000 1.000000 1.000000
Kd 0.045966 0.640000 0.224158
Ks 0.500000 0.500000 0.500000
Ke 0.000000 0.000000 0.000000
Ni 1.000000
d 1.000000
illum 2

newmtl Material.005
Ns 96.078431
Ka 1.000000 1.000000 1.000000
Kd 0.557521 0.117375 0.640000
Ks 0.500000 0.500000 0.500000
Ke 0.000000 0.000000 0.000000
Ni 1.000000
d 1.000000
illum 2

newmtl None
Ns 0
Ka 0.000000 0.000000 0.000000
Kd 0.8 0.8 0.8
Ks 0.8 0.8 0.8
d 1
illum 2
