# Blender MTL File: 'object2.blend'
# Material Count: 4

newmtl Material
Ns 96.078431
Ka 1.000000 1.000000 1.000000
Kd 0.000000 0.640000 0.004870
Ks 0.500000 0.500000 0.500000
Ke 0.000000 0.000000 0.000000
Ni 1.000000
d 1.000000
illum 2

newmtl Material.001
Ns 96.078431
Ka 1.000000 1.000000 1.000000
Kd 0.107234 0.438075 0.640000
Ks 0.500000 0.500000 0.500000
Ke 0.000000 0.000000 0.000000
Ni 1.000000
d 1.000000
illum 2

newmtl Material.002
Ns 96.078431
Ka 1.000000 1.000000 1.000000
Kd 0.728559 0.800000 0.000000
Ks 0.500000 0.500000 0.500000
Ke 0.000000 0.000000 0.000000
Ni 1.000000
d 1.000000
illum 2

newmtl Material.003
Ns 96.078431
Ka 1.000000 1.000000 1.000000
Kd 0.640000 0.008202 0.423155
Ks 0.500000 0.500000 0.500000
Ke 0.000000 0.000000 0.000000
Ni 1.000000
d 1.000000
illum 2
